…
shape

## $shape
## # A tibble: 299 x 7
##    glyph index metric_id string_id x_offset y_offset x_midpoint
##    <chr> <int>     <int>     <int>    <dbl>    <dbl>      <dbl>
##  1 "T"      55         0         1   -133.      46.2       4.2 
##  2 "h"      75         0         1   -125.      46.2       3.84
##  3 "i"      76         0         1   -117.      46.2       1.56
##  4 "s"      86         0         1   -114       46.2       3.48
##  5 " "       3         0         1   -107.      46.2       1.92
##  6 "i"      76         0         1   -103.      46.2       1.56
##  7 "s"      86         0         1   -100.      46.2       3.48
##  8 " "       3         0         1    -93.1     46.2       1.92
##  9 "a"      68         0         1    -89.3     46.2       3.84
## 10 "n"      81         0         1    -81.6     46.2       3.84
## # ... with 289 more rows
## 
## $metrics
…
